{
    "title": "CallsQuery",
    "type": "object",
    "properties": {
        "tz": { "type": "string" },
        "explain": { "type": "string", "enum": ["analyze", "noanalyze"] },
        "where": { "type": "string" },
        "omni": { "type": "string" },
        "order": {
            "type": "string",
            "enum": [
                "random",
                "weighted_random",
                "utcd",
                "weighted_utcd",
                "utc",
                "weighted_utc",
                "answer",
                "answer_desc",
                "call_length",
                "call_length_desc",
                "weighted_ani_sip",
                "weighted_ani_sip_desc",
                "weighted_pos",
                "weighted_pos_desc",
                "weighted_calltaker",
                "weighted_calltaker_desc",
                "weighted_trunk",
                "weighted_trunk_desc",
                "weighted_is_911",
                "weighted_is_911_desc",
                "weighted_incoming",
                "weighted_incoming_desc",
                "weighted_cos",
                "weighted_cos_desc",
                "weighted_call_length",
                "weighted_call_length_desc",
                "weighted_transfer_reaction",
                "weighted_transfer_reaction_desc",
                "none"
            ]
        },
        "limit": {"type": "string", "pattern": "^\\d+$"},
        "offset": {"type": "string", "pattern": "^\\d+$"}
    },
    "additionalProperties": false
}
